{
  "https://visit.rc3.world/@/rc3_21/lobby/main.json": [
    "https://visit.rc3.world/@/rc3_21/lobby/floppy-landfill.json",
    "https://visit.rc3.world/@/rc3_21/himmel/main.json",
    "https://visit.rc3.world/@/rc3_21/poc/main.json",
    "https://visit.rc3.world/@/rc3_21/lobby/islanooblar.json",
    "https://visit.rc3.world/@/rc3_21/lobby/rest-of-2020.json",
    "https://visit.rc3.world/@/rc3_21/infra/main.json",
    "https://visit.rc3.world/@/rc3_21/loc/main.json",
    "https://visit.rc3.world/@/rc3_21/lobby/lounge-hub.json",
    "https://visit.rc3.world/@/rc3_21/lobby/punchcard.json",
    "https://visit.rc3.world/@/rc3_21/c3auti/main.json",
    "https://visit.rc3.world/@/rc3_21/cert/main.json",
    "https://visit.rc3.world/@/rc3_21/lobby/kunstinsel.json",
    "https://visit.rc3.world/@/rc3_21/lobby/pcb.json",
    "https://visit.rc3.world/@/rc3_21/lobby/chaoszone.json",
    "https://visit.rc3.world/@/rc3_21/awareness/main.json",
    "https://visit.rc3.world/@/rc3_21/lobby/solarpunk.json",
    "https://visit.rc3.world/@/rc3_21/lobby/infodesk.json"
  ]
}